2007
['flickr', 'malingering', 'dui', 'shi', 'photostream', 'hua', 'tao', 'adj', 'rebekka', 'xiaoning']
2008
['weizenbaum', 'plaxo', 'villeneuve', 'quon', 'jeanneney', 'arch', 'digitask', 'kunkel', 'quaero', 'ecs']
2009
['phorm', 'webwise', 'gc', 'miit', 'mcintyre', 'alderman', 'dam', 'retrieved', 'kassan', 'catteneo']
2010
['rapleaf', 'borker', 'acta', 'rim', 'mytriggers', 'rumpus', 'afifi', 'zynga', 'groupon', 'blackberry']
2011
['acta', 'htc', 'android', 'diginotar', 'g8', 'groupon', 'rim', 'zynga', 'eckhart', 'apple']
2012
['acta', 'motorola', 'sopa', 'piracy', 'htc', 'samsung', 'inta', 'apple', 'twitter', 'proview']
2013
['nsa', 'newgen', 'snowden', 'gchq', 'gigamon', 'les', 'yify', 'hotfile', 'appli', 'simitis']
2014
['nsa', 'qosmos', 'snowden', 'gchq', 'icreach', 'finfisher', 'atick', 'enlets', 'regin', 'heartbleed']
2015
['highlands', 'barbie', 'thuraisingham', 'mdds', 'steinheiser', 'newsdata', 'hospitaldata', 'wulfeck', 'nsa', 'gchq']
2016
['talley', 'compas', 'recidivism', 'niantic', 'lightwave', 'mcnutt', 'northpointe', 'shipp', 'broward', 'je']
2017
['kosinski', 'analytica', 'uber', 'trump', 'palantir', 'aggregateiq', 'nix', 'icm', 'greyball', 'scl']
2018
['rainpada', 'analytica', '2017', 'cpap', 'buzzfeed', 'amazon', 'duterte', 'circinus', 'uber', 'maven']
2019
['romero', 'tiktok', 'salazar', '2017', 'amazon', '2018', 'totok', '2019', 'trump', 'libra']
2020
['coronavirus', 'pandemic', 'clearview', '2019', 'quarantine', 'trump', 'ai', '2020', 'tracing', 'tiktok']
2021
['clearview', '2019', 'pandemic', 'floc', 'frontex', 'vaccine', 'coronavirus', '2020', 'pmt', 'covid']
