Importing data
2007
[('users', 2), ('flickr', 2), ('china', 2), ('chinese', 2), ('police', 2), ('games', 1), ('adverts', 1), ('patent', 1), ('playing', 1), ('game', 1), ('facebook', 1), ('beacon', 1), ('zuckerberg', 1), ('advertising', 1), ('photos', 1), ('kids', 1), ('cats', 1), ('malingering', 1), ('microsoft', 1), ('internet', 1), ('browsing', 1), ('germany', 1), ('decision', 1), ('nazi', 1), ('policy', 1), ('mining', 1), ('fbi', 1), ('doj', 1), ('initiatives', 1), ('data', 1), ('shi', 1), ('tao', 1), ('yahoo', 1), ('document', 1), ('beijing', 1), ('imprisonment', 1), ('2002', 1), ('sentenced', 1), ('rights', 1), ('human', 1), ('chancellor', 1), ('darling', 1), ('northern', 1), ('rock', 1), ('competence', 1)]
2008
[('google', 3), ('skype', 3), ('microsoft', 2), ('yahoo', 2), ('messages', 2), ('chinese', 2), ('plaxo', 1), ('import', 1), ('email', 1), ('facebook', 1), ('judi', 1), ('shotgun', 1), ('marriage', 1), ('risk', 1), ('article', 1), ('associated', 1), ('practices', 1), ('adoption', 1), ('consultation', 1), ('recommendation', 1), ('commission', 1), ('radio', 1), ('rfid', 1), ('comcast', 1), ('kunkel', 1), ('camera', 1), ('living', 1), ('bittorrent', 1), ('sarkozy', 1), ('european', 1), ('fjellner', 1), ('france', 1), ('parliament', 1), ('offer', 1), ('ballmer', 1), ('alternative', 1), ('arch', 1), ('quon', 1), ('circuit', 1), ('ecs', 1), ('viacom', 1), ('youtube', 1), ('copyright', 1), ('site', 1), ('logs', 1), ('study', 1), ('attitudes', 1), ('focus', 1), ('privacy', 1), ('values', 1)]
2009
[('google', 6), ('facebook', 5), ('twitter', 4), ('books', 3), ('zuckerberg', 2), ('location', 2), ('yahoo', 2), ('censorship', 2), ('iran', 2), ('software', 2), ('patients', 2), ('medical', 2), ('book', 2), ('settlement', 2), ('schmidt', 2), ('pretty', 2), ('cloud', 2), ('attack', 2), ('life', 2), ('lab', 2), ('150m', 1), ('deloitte', 1), ('advertising', 1), ('latitude', 1), ('enabled', 1), ('phone', 1), ('microsoft', 1), ('deal', 1), ('advertisers', 1), ('rotenberg', 1), ('users', 1), ('terms', 1), ('nokia', 1), ('finland', 1), ('finnish', 1), ('employees', 1), ('employers', 1), ('linked', 1), ('tim', 1), ('reframe', 1), ('unlock', 1), ('web', 1), ('management', 1), ('restaurant', 1), ('fired', 1), ('statutes', 1), ('myspace', 1), ('german', 1), ('child', 1), ('germany', 1)]
2010
[('facebook', 57), ('apple', 35), ('google', 32), ('microsoft', 23), ('privacy', 19), ('search', 18), ('china', 16), ('acta', 15), ('wikileaks', 14), ('blackberry', 14), ('patent', 12), ('social', 11), ('games', 11), ('location', 11), ('android', 11), ('chinese', 10), ('music', 10), ('data', 10), ('nokia', 10), ('foursquare', 10), ('ads', 10), ('rim', 10), ('neutrality', 10), ('fcc', 10), ('browser', 9), ('copyright', 9), ('local', 9), ('zuckerberg', 8), ('patents', 8), ('eu', 8), ('app', 8), ('adobe', 8), ('apps', 8), ('schmidt', 8), ('commission', 8), ('net', 8), ('verizon', 8), ('broadband', 8), ('rules', 8), ('street', 7), ('european', 7), ('twitter', 7), ('flash', 7), ('quarter', 7), ('results', 7), ('cloud', 7), ('friends', 7), ('books', 7), ('german', 6), ('police', 6)]
2011
[('facebook', 60), ('apple', 54), ('google', 47), ('search', 24), ('patent', 23), ('neutrality', 20), ('twitter', 19), ('china', 19), ('android', 19), ('microsoft', 18), ('location', 17), ('net', 17), ('eu', 17), ('app', 16), ('acta', 15), ('samsung', 15), ('data', 15), ('amazon', 13), ('copyright', 13), ('patents', 13), ('bt', 12), ('developers', 12), ('cookies', 12), ('chinese', 11), ('hackers', 11), ('privacy', 10), ('blackberry', 10), ('schmidt', 10), ('apps', 10), ('antitrust', 10), ('music', 10), ('htc', 10), ('iq', 10), ('bill', 9), ('ftc', 9), ('surveillance', 9), ('carrier', 9), ('wikileaks', 8), ('sony', 8), ('court', 8), ('baidu', 8), ('publishers', 7), ('police', 7), ('tweets', 7), ('act', 7), ('commission', 7), ('crossley', 7), ('egypt', 7), ('subscription', 7), ('bing', 7)]
2012
[('facebook', 111), ('google', 97), ('apple', 79), ('acta', 53), ('patent', 39), ('twitter', 39), ('samsung', 38), ('patents', 34), ('eu', 32), ('motorola', 25), ('search', 24), ('privacy', 23), ('microsoft', 22), ('data', 22), ('mobile', 19), ('parliament', 18), ('yahoo', 18), ('bill', 17), ('app', 16), ('communications', 16), ('tweets', 15), ('china', 15), ('fbi', 15), ('ftc', 15), ('children', 15), ('ads', 14), ('policy', 14), ('workers', 14), ('cookies', 14), ('surveillance', 14), ('sopa', 13), ('european', 13), ('apps', 13), ('passwords', 12), ('android', 12), ('amazon', 12), ('almunia', 12), ('police', 12), ('government', 12), ('antitrust', 11), ('adverts', 11), ('bay', 11), ('pirate', 11), ('vote', 11), ('zuckerberg', 11), ('ico', 11), ('treaty', 11), ('youtube', 11), ('requests', 11), ('iran', 10)]
2013
[('google', 26), ('facebook', 23), ('nsa', 19), ('requests', 14), ('apple', 11), ('gchq', 11), ('app', 9), ('surveillance', 9), ('copyright', 9), ('search', 7), ('microsoft', 7), ('software', 7), ('uk', 7), ('hackers', 6), ('amazon', 6), ('cispa', 6), ('patent', 6), ('bill', 6), ('isps', 6), ('biometric', 6), ('patents', 5), ('regulators', 5), ('chinese', 5), ('acta', 5), ('gmail', 5), ('meps', 5), ('damages', 5), ('data', 5), ('mobile', 5), ('eu', 5), ('intelligence', 5), ('cookies', 5), ('mpaa', 5), ('customers', 4), ('fbi', 4), ('tax', 4), ('accounts', 4), ('court', 4), ('protection', 4), ('china', 4), ('social', 4), ('drones', 4), ('committee', 4), ('oecd', 4), ('de', 4), ('music', 4), ('amendments', 4), ('regulation', 4), ('android', 4), ('european', 4)]
2014
[('facebook', 27), ('google', 25), ('nsa', 22), ('amazon', 16), ('gchq', 12), ('twitter', 11), ('apple', 10), ('copyright', 9), ('eu', 9), ('requests', 9), ('fbi', 9), ('app', 8), ('microsoft', 8), ('encryption', 8), ('workers', 8), ('pirate', 7), ('european', 7), ('court', 7), ('health', 7), ('intelligence', 6), ('uk', 6), ('music', 6), ('malware', 6), ('images', 6), ('tax', 6), ('books', 6), ('recognition', 6), ('pakistan', 6), ('finfisher', 6), ('apps', 5), ('data', 5), ('judge', 5), ('police', 5), ('project', 5), ('turkish', 5), ('russian', 5), ('whatsapp', 5), ('privacy', 5), ('hacking', 5), ('bay', 5), ('isps', 5), ('chinese', 5), ('metadata', 5), ('eff', 5), ('heartbleed', 5), ('hachette', 5), ('ruling', 5), ('links', 5), ('lawsuit', 5), ('belgacom', 5)]
2015
[('google', 14), ('facebook', 14), ('bill', 9), ('european', 9), ('hacking', 9), ('gchq', 9), ('apple', 9), ('amazon', 8), ('microsoft', 8), ('french', 7), ('nsa', 7), ('team', 7), ('fbi', 6), ('student', 6), ('software', 6), ('surveillance', 5), ('tax', 5), ('lawsuit', 5), ('eu', 5), ('uk', 5), ('search', 5), ('windows', 5), ('terrorism', 4), ('report', 4), ('verizon', 4), ('cookies', 4), ('tracking', 4), ('judge', 4), ('t', 4), ('traffic', 4), ('court', 4), ('encryption', 4), ('samsung', 4), ('tv', 4), ('breach', 4), ('malware', 4), ('black', 4), ('calls', 4), ('music', 4), ('belgian', 4), ('facial', 4), ('biometric', 4), ('drug', 4), ('results', 4), ('commission', 4), ('app', 4), ('enforcement', 4), ('10', 4), ('takedown', 3), ('pirate', 3)]
2016
[('google', 9), ('apple', 6), ('facial', 6), ('facebook', 6), ('fbi', 5), ('baltimore', 5), ('china', 4), ('nsa', 4), ('location', 4), ('amazon', 4), ('ads', 4), ('ad', 4), ('yahoo', 4), ('database', 3), ('hacking', 3), ('chinese', 3), ('app', 3), ('eu', 3), ('verizon', 3), ('workers', 3), ('moves', 3), ('revolving', 3), ('uk', 3), ('muslim', 3), ('uber', 3), ('factory', 3), ('algorithmic', 3), ('geofeedia', 3), ('aclu', 3), ('voter', 2), ('rights', 2), ('governments', 2), ('internet', 2), ('children', 2), ('parents', 2), ('agreement', 2), ('british', 2), ('tracking', 2), ('privacy', 2), ('university', 2), ('women', 2), ('censorship', 2), ('data', 2), ('design', 2), ('spies', 2), ('internal', 2), ('waze', 2), ('movements', 2), ('cia', 2), ('computers', 2)]
2017
[('uber', 15), ('facebook', 14), ('google', 14), ('app', 10), ('amazon', 10), ('women', 8), ('recognition', 8), ('facial', 8), ('apple', 6), ('zuckerberg', 6), ('drivers', 6), ('fbi', 6), ('android', 6), ('ad', 5), ('police', 5), ('china', 5), ('data', 5), ('russian', 5), ('border', 4), ('cambridge', 4), ('analytica', 4), ('browsing', 4), ('intelligence', 4), ('spyware', 4), ('communications', 4), ('australian', 4), ('instagram', 4), ('whatsapp', 3), ('backdoor', 3), ('nsa', 3), ('voice', 3), ('regulations', 3), ('privacy', 3), ('store', 3), ('email', 3), ('computers', 3), ('children', 3), ('immigrants', 3), ('program', 3), ('assistant', 3), ('youtube', 3), ('clients', 3), ('content', 3), ('bill', 3), ('twitter', 3), ('gender', 3), ('advertisers', 3), ('airport', 3), ('surveillance', 3), ('tinder', 3)]
2018
[('facebook', 32), ('google', 31), ('amazon', 30), ('china', 16), ('uber', 12), ('chinese', 11), ('ai', 10), ('facial', 10), ('zuckerberg', 9), ('police', 8), ('alexa', 8), ('border', 8), ('workers', 8), ('search', 8), ('tax', 7), ('youtube', 7), ('city', 7), ('drivers', 7), ('ads', 7), ('accounts', 6), ('voice', 6), ('court', 6), ('credit', 6), ('videos', 6), ('video', 6), ('dna', 6), ('harassment', 6), ('ice', 6), ('project', 6), ('contract', 6), ('maven', 6), ('analytica', 6), ('cambridge', 6), ('data', 6), ('location', 6), ('apps', 6), ('whatsapp', 5), ('military', 5), ('children', 5), ('bezos', 5), ('gender', 5), ('recognition', 5), ('memo', 5), ('school', 5), ('eu', 5), ('drone', 5), ('buzzfeed', 5), ('users', 5), ('immigration', 5), ('sexual', 5)]
2019
[('facebook', 49), ('amazon', 31), ('facial', 25), ('google', 22), ('recognition', 22), ('app', 20), ('apple', 14), ('ads', 13), ('workers', 13), ('border', 13), ('uber', 13), ('china', 11), ('ring', 10), ('location', 10), ('police', 10), ('tiktok', 10), ('chinese', 10), ('cameras', 9), ('youtube', 9), ('apps', 9), ('ai', 9), ('women', 9), ('fbi', 9), ('data', 9), ('twitter', 8), ('content', 8), ('xinjiang', 8), ('delivery', 8), ('court', 7), ('fake', 7), ('dna', 7), ('internet', 7), ('drivers', 7), ('huawei', 6), ('ftc', 6), ('letter', 6), ('kong', 6), ('recordings', 6), ('alexa', 6), ('hong', 6), ('videos', 6), ('ice', 6), ('saudi', 5), ('microsoft', 5), ('capitalism', 5), ('instagram', 5), ('employees', 5), ('ad', 5), ('analytica', 5), ('cambridge', 5)]
2020
[('facebook', 77), ('facial', 73), ('recognition', 59), ('amazon', 56), ('app', 47), ('google', 40), ('workers', 39), ('police', 37), ('ai', 34), ('eu', 31), ('tracing', 31), ('uber', 29), ('drivers', 28), ('clearview', 27), ('apple', 24), ('apps', 22), ('chinese', 21), ('ring', 21), ('health', 21), ('surveillance', 21), ('contact', 21), ('nso', 20), ('location', 19), ('nhs', 19), ('zuckerberg', 18), ('cameras', 18), ('antitrust', 18), ('lyft', 18), ('ad', 16), ('ads', 16), ('students', 16), ('microsoft', 16), ('trump', 16), ('palantir', 16), ('algorithm', 15), ('china', 14), ('twitter', 14), ('employees', 14), ('zoom', 14), ('policing', 14), ('instagram', 13), ('uk', 13), ('election', 13), ('tiktok', 12), ('content', 12), ('algorithms', 12), ('internet', 12), ('nypd', 11), ('black', 11), ('data', 10)]
2021
[('facebook', 19), ('amazon', 18), ('police', 14), ('google', 13), ('drivers', 13), ('capitol', 10), ('ai', 9), ('workers', 9), ('facial', 9), ('recognition', 8), ('clearview', 8), ('whatsapp', 8), ('gender', 7), ('ads', 7), ('chinese', 7), ('union', 7), ('cameras', 7), ('algorithms', 6), ('twitter', 6), ('trump', 6), ('data', 6), ('border', 6), ('vaccine', 6), ('australia', 6), ('delivery', 6), ('eu', 6), ('employees', 5), ('european', 5), ('frontex', 5), ('advertising', 5), ('greek', 5), ('drones', 5), ('uber', 5), ('patent', 5), ('political', 4), ('conspiracy', 4), ('messenger', 4), ('privacy', 4), ('parler', 4), ('zuckerberg', 4), ('china', 4), ('israel', 4), ('expressions', 4), ('news', 4), ('city', 4), ('advertisers', 4), ('palantir', 4), ('book', 4), ('instagram', 4), ('hackers', 4)]
